{
  "properties": [
    {
      "name": "grit.web.client.enabled",
      "type": "java.lang.String",
      "description": "Enable the web hook."
    },
    {
      "name": "grit.instanceId",
      "type": "java.lang.String",
      "description": "The instanceId (assigned by the provider) that will be used to id this instance."
    },
    {
      "name": "grit.web.client.serverUrl",
      "type": "java.lang.String",
      "description": "the url to post telemetry to."
    },
    {
      "name": "grit.scheduler.poll.interval",
      "type": "java.lang.String",
      "description": "The interval in millis to wait between polls."
    },
    {
      "name": "grit.mqtt.enabled",
      "type": "java.lang.String",
      "description": "enable the mqtt client."
    },
    {
      "name": "grit.mqtt.url",
      "type": "java.lang.String",
      "description": "mqtt url."
    },
    {
      "name": "grit.mqtt.username",
      "type": "java.lang.String",
      "description": "mqtt username."
    },
    {
      "name": "grit.mqtt.password",
      "type": "java.lang.String",
      "description": "mqtt password."
    },
    {
      "name": "grit.mqtt.topic.base",
      "type": "java.lang.String",
      "description": "mqtt topic base, i.e. base/#."
    },
    {
      "name": "grit.devices",
      "type": "java.lang.String",
      "description": "a list of devices."
    }
  ]
}
